{
  "todos": [
    {
      "description": "JavaScript Projekt fertigstellen",
      "isDone": false,
      "id": "1"
    },
    {
      "description": "Ferien machen und relaxen",
      "isDone": true,
      "id": "2"
    },
    {
      "description": "Node.js - Das umfassende Handbuch lesen",
      "isDone": false,
      "id": "3"
    }
  ]
}
